Problem Set 03: Data Wrangling
…
This first set of questions will help you practice basic syntax.

Problem 3

Write a code chunk to remove the inventory variable. Save the results in a data frame called txhousing. Confirm the variable inventory has been removed.

Problem 3 Answers

# Type your code and comments inside the code chunk

txhousing <- txhousing %>%
  select(-(inventory))
txhousing

# A tibble: 8,602 × 8
   city     year month sales   volume median listings vol_100k
   <chr>   <int> <int> <dbl>    <dbl>  <dbl>    <dbl>    <dbl>
 1 Abilene  2000     1    72  5380000  71400      701     53.8
 2 Abilene  2000     2    98  6505000  58700      746     65.0
 3 Abilene  2000     3   130  9285000  58100      784     92.8
 4 Abilene  2000     4    98  9730000  68600      785     97.3
 5 Abilene  2000     5   141 10590000  67300      794    106. 
 6 Abilene  2000     6   156 13910000  66900      780    139. 
 7 Abilene  2000     7   152 12635000  73500      742    126. 
 8 Abilene  2000     8   131 10710000  75000      765    107. 
 9 Abilene  2000     9   104  7615000  64500      771     76.2
10 Abilene  2000    10   101  7040000  59300      764     70.4
# ℹ 8,592 more rows
…
Problem 7

Arrange the dallas_summary in descending order based on the average percentage of listings that were sold in Dallas, so you can see which month had the greatest percentage of houses sold in Dallas on average from 2012-2013. You do not need to save the results.

Problem 7 Answers

# Type your code and comments inside the code chunk
dallas_summary <- dallas_sub %>%
  group_by(month, year) %>%
  summarize(mean_prct_sold = mean(prct_sold)) %>%
    arrange(desc(mean_prct_sold))
dallas_summary

# A tibble: 24 × 3
# Groups:   month [12]
   month  year mean_prct_sold
   <int> <int>          <dbl>
 1     5  2013           48.2
 2     7  2013           46.2
 3     8  2013           45.3
 4     6  2013           44.8
 5     4  2013           44.6
 6     3  2013           41.2
 7    12  2013           40.0
 8     9  2013           37.6
 9    10  2013           36.1
10    11  2013           33.3
# ℹ 14 more rows
…
Problem 9

In January of 2015, what city had the fewest houses listed for sale? Report the city and the number of houses said city had listed for sale using inline R code.

Problem 9 Answers

# Type your code and comments inside the code chunk
txhousing2 <- txhousing %>%
  filter(year == 2015) %>%
  group_by(listings) %>%
  arrange(listings)
txhousing2

# A tibble: 322 × 8
# Groups:   listings [283]
   city        year month sales   volume median listings vol_100k
   <chr>      <int> <int> <dbl>    <dbl>  <dbl>    <dbl>    <dbl>
 1 San Marcos  2015     2    19  3984850 170000       83     39.8
 2 San Marcos  2015     1    18  3376703 150000       85     33.8
 3 San Marcos  2015     3    24  4215796 160000       97     42.2
 4 San Marcos  2015     6    39  8808027 190000      101     88.1
 5 San Marcos  2015     5    36  8617000 215000      102     86.2
 6 San Marcos  2015     4    29  6806350 210700      110     68.1
 7 Garland     2015     3   172 25582593 135900      146    256. 
 8 Garland     2015     2   123 19955972 141400      147    200. 
 9 Garland     2015     4   160 24616400 141000      170    246. 
10 Garland     2015     5   195 32018011 151000      177    320. 
# ℹ 312 more rows
…
Problem 10

In 2012, in which month were the most houses sold in Texas? Report the month were the most houses sold in Texas and the number of houses sold for that month using inline R code.

Problem 10 Answers

# Type your code and comments inside the code chunk
txhousing3 <- txhousing %>%
  filter(year == 2012) %>%
  group_by(month, sales) %>%
  arrange(desc(sales))
txhousing3

# A tibble: 552 × 8
# Groups:   month, sales [530]
   city     year month sales     volume median listings vol_100k
   <chr>   <int> <int> <dbl>      <dbl>  <dbl>    <dbl>    <dbl>
 1 Houston  2012     8  7112 1566297243 163900    27090   15663.
 2 Houston  2012     6  6990 1620900791 170700    28834   16209.
 3 Houston  2012     7  6842 1541655520 169300    28514   15417.
 4 Houston  2012     5  6743 1565958406 168000    28819   15660.
 5 Houston  2012    10  5866 1280422125 162100    24828   12804.
 6 Houston  2012     4  5629 1235085496 161100    29111   12351.
 7 Houston  2012    12  5610 1335407998 171000    21632   13354.
 8 Houston  2012     9  5479 1186230552 163300    26019   11862.
 9 Houston  2012    11  5449 1231393037 166700    23592   12314.
10 Houston  2012     3  5389 1200579097 161700    28548   12006.
# ℹ 542 more rows
…
