Problem Set 07
…
[1] 0.08 0.10 0.16 0.18 0.20 0.10

n50_1000rep

# A tibble: 50,000 × 2
# Groups:   replicate [1,000]
   replicate marital      
       <int> <fct>        
 1         1 Divorced     
 2         1 Never married
 3         1 Never married
 4         1 Widowed      
 5         1 Married      
 6         1 Widowed      
 7         1 Married      
 8         1 Widowed      
 9         1 Separated    
10         1 Married      
# ℹ 49,990 more rows
…
The values are the same as our earlier estimates.

Problem 7

Use the rep_sample_n function to collect 1000 virtual samples of size \(n = 15\). Store the 1000 virtual samples in an object named n15_1000rep. Use a seed of 910.

Problem 7 Answers

# Type your code and comments inside the code chunk
set.seed(910)
n15_1000rep <- gss_YEAR %>% 
  rep_sample_n(size = 15, reps = 1000)
n15_1000rep

# A tibble: 15,000 × 2
# Groups:   replicate [1,000]
   replicate marital      
       <int> <fct>        
 1         1 Married      
 2         1 Never married
 3         1 Widowed      
 4         1 Married      
 5         1 Married      
 6         1 Divorced     
 7         1 Married      
 8         1 Married      
 9         1 Married      
10         1 Married      
# ℹ 14,990 more rows
…
There is a smaller sample size with the n=15 group than the n=50 group, so the margin of error is larger.

Problem 13

Use the rep_sample_n function to collect 1000 virtual samples of size \(n = 600\). Store the 1000 virtual samples in an object named n600_1000rep. Use a seed of 84.

Problem 13 Answers

# Type your code and comments inside the code chunk
set.seed(84)
n600_1000rep <- gss_YEAR %>% 
  rep_sample_n(size = 600, reps = 1000)
n600_1000rep

# A tibble: 600,000 × 2
# Groups:   replicate [1,000]
   replicate marital      
       <int> <fct>        
 1         1 Married      
 2         1 Never married
 3         1 Married      
 4         1 Never married
 5         1 Widowed      
 6         1 Married      
 7         1 Married      
 8         1 Divorced     
 9         1 Divorced     
10         1 Married      
# ℹ 599,990 more rows
…
